EDA_peer.utf8
…
2 

The mantra in real estate is Location, Location, Location! Make a graphical display that relates a home price to its neighborhood in Ames, Iowa. Which summary statistics are most appropriate to use for determining the most expensive, least expensive, and most heterogeneous (having the most variation in housing price) neighborhoods? Report which neighborhoods these are based on the summary statistics of your choice. Report the value of your chosen summary statistics for these neighborhoods.

# type your code for Question 2 here, and Knit
ames_train_loc <- ames_train%>%
  select(price, Neighborhood)%>%
  group_by(Neighborhood)%>%
  summarise(median=median(price), max=max(price), min=min(price), sd=sd(price))

## `summarise()` ungrouping output (override with `.groups` argument)

print(arrange(ames_train_loc, desc(max)))

## # A tibble: 27 x 5
##    Neighborhood  median    max    min      sd
##    <fct>          <dbl>  <int>  <int>   <dbl>
##  1 NridgHt      336860  615000 173000 105089.
##  2 StoneBr      340692. 591587 180000 123459.
##  3 CollgCr      195800  475000 110000  52786.
##  4 Somerst      221650  468000 139000  65199.
##  5 Timber       232500  425000 175000  84030.
##  6 Edwards      127250  415000  61500  54852.
##  7 NoRidge      290000  405000 235000  35889.
##  8 Crawfor      205000  392500  96500  71268.
##  9 Veenker      205750  385000 150000  72545.
## 10 Gilbert      183500  377500 133000  41190.
## # ... with 17 more rows

print(arrange(ames_train_loc, min))

## # A tibble: 27 x 5
##    Neighborhood median    max   min     sd
##    <fct>         <dbl>  <int> <int>  <dbl>
##  1 OldTown      120000 265979 12789 36430.
##  2 IDOTRR        99500 150909 34900 31530.
##  3 BrkSide      124000 207000 39300 37310.
##  4 Edwards      127250 415000 61500 54852.
##  5 Sawyer       136000 219000 63900 21216.
##  6 SawyerW      182500 320000 67500 48354.
##  7 MeadowV       85750 129500 73000 18940.
##  8 NAmes        139900 277500 76500 27268.
##  9 SWISU        134000 169000 80000 27376.
## 10 NWAmes       185000 278000 82500 41341.
## # ... with 17 more rows

print(arrange(ames_train_loc, desc(median)))

## # A tibble: 27 x 5
##    Neighborhood  median    max    min      sd
##    <fct>          <dbl>  <int>  <int>   <dbl>
##  1 StoneBr      340692. 591587 180000 123459.
##  2 NridgHt      336860  615000 173000 105089.
##  3 NoRidge      290000  405000 235000  35889.
##  4 GrnHill      280000  330000 230000  70711.
##  5 Timber       232500  425000 175000  84030.
##  6 Somerst      221650  468000 139000  65199.
##  7 Greens       212625  214000 155000  29063.
##  8 Veenker      205750  385000 150000  72545.
##  9 Crawfor      205000  392500  96500  71268.
## 10 CollgCr      195800  475000 110000  52786.
## # ... with 17 more rows
…
